{
  "response": {
    "status": "ok",
    "userTier": "developer",
    "total": 2427725,
    "startIndex": 1,
    "pageSize": 20,
    "currentPage": 1,
    "pages": 121387,
    "orderBy": "newest",
    "results": [
      {
        "id": "world/live/2023/may/29/russia-ukraine-war-live-zelenskiy-thanks-air-defence-forces-as-explosions-rock-kyiv-for-second-night-in-a-row",
        "type": "liveblog",
        "sectionId": "world",
        "sectionName": "World news",
        "webPublicationDate": "2023-05-29T11:11:36Z",
        "webTitle": "Russia-Ukraine war live: morning explosions in Kyiv after Ukraine claims to have downed 37 missiles overnight",
        "webUrl": "https://www.theguardian.com/world/live/2023/may/29/russia-ukraine-war-live-zelenskiy-thanks-air-defence-forces-as-explosions-rock-kyiv-for-second-night-in-a-row",
        "apiUrl": "https://content.guardianapis.com/world/live/2023/may/29/russia-ukraine-war-live-zelenskiy-thanks-air-defence-forces-as-explosions-rock-kyiv-for-second-night-in-a-row",
        "isHosted": false,
        "pillarId": "pillar/news",
        "pillarName": "News"
      },
      {
        "id": "sport/live/2023/may/29/french-open-tennis-day-two-djokovic-alcaraz-garcia-norrie",
        "type": "liveblog",
        "sectionId": "sport",
        "sectionName": "Sport",
        "webPublicationDate": "2023-05-29T11:03:57Z",
        "webTitle": "French Open day two: Norrie in action, Djokovic, Alcaraz and Garcia to come – live",
        "webUrl": "https://www.theguardian.com/sport/live/2023/may/29/french-open-tennis-day-two-djokovic-alcaraz-garcia-norrie",
        "apiUrl": "https://content.guardianapis.com/sport/live/2023/may/29/french-open-tennis-day-two-djokovic-alcaraz-garcia-norrie",
        "isHosted": false,
        "pillarId": "pillar/sport",
        "pillarName": "Sport"
      },
      {
        "id": "food/2023/may/29/frozen-food-expert-tips-best-freezer",
        "type": "article",
        "sectionId": "food",
        "sectionName": "Food",
        "webPublicationDate": "2023-05-29T11:00:03Z",
        "webTitle": "Frozen food: expert tips on how to get the best out of your freezer",
        "webUrl": "https://www.theguardian.com/food/2023/may/29/frozen-food-expert-tips-best-freezer",
        "apiUrl": "https://content.guardianapis.com/food/2023/may/29/frozen-food-expert-tips-best-freezer",
        "isHosted": false,
        "pillarId": "pillar/lifestyle",
        "pillarName": "Lifestyle"
      },
      {
        "id": "football/2023/may/29/premier-league-2022-23-review-flops-of-the-season",
        "type": "article",
        "sectionId": "football",
        "sectionName": "Football",
        "webPublicationDate": "2023-05-29T11:00:03Z",
        "webTitle": "Premier League 2022-23 review: flops of the season",
        "webUrl": "https://www.theguardian.com/football/2023/may/29/premier-league-2022-23-review-flops-of-the-season",
        "apiUrl": "https://content.guardianapis.com/football/2023/may/29/premier-league-2022-23-review-flops-of-the-season",
        "isHosted": false,
        "pillarId": "pillar/sport",
        "pillarName": "Sport"
      },
      {
        "id": "money/2023/may/29/uk-food-bills-save-money-buy-frozen-food-freezer",
        "type": "article",
        "sectionId": "money",
        "sectionName": "Money",
        "webPublicationDate": "2023-05-29T11:00:03Z",
        "webTitle": "UK food bills: can you really save money if you buy frozen?",
        "webUrl": "https://www.theguardian.com/money/2023/may/29/uk-food-bills-save-money-buy-frozen-food-freezer",
        "apiUrl": "https://content.guardianapis.com/money/2023/may/29/uk-food-bills-save-money-buy-frozen-food-freezer",
        "isHosted": false,
        "pillarId": "pillar/lifestyle",
        "pillarName": "Lifestyle"
      },
      {
        "id": "tv-and-radio/2023/may/29/share-your-thoughts-on-the-final-episode-of-succession",
        "type": "article",
        "sectionId": "tv-and-radio",
        "sectionName": "Television & radio",
        "webPublicationDate": "2023-05-29T10:50:42Z",
        "webTitle": "Share your thoughts on the final episode of Succession ",
        "webUrl": "https://www.theguardian.com/tv-and-radio/2023/may/29/share-your-thoughts-on-the-final-episode-of-succession",
        "apiUrl": "https://content.guardianapis.com/tv-and-radio/2023/may/29/share-your-thoughts-on-the-final-episode-of-succession",
        "isHosted": false,
        "pillarId": "pillar/arts",
        "pillarName": "Arts"
      },
      {
        "id": "world/2023/may/29/spain-pm-calls-snap-election-after-opposition-and-far-right-wins-in-local-polls-pedro-sanchez",
        "type": "article",
        "sectionId": "world",
        "sectionName": "World news",
        "webPublicationDate": "2023-05-29T10:38:51Z",
        "webTitle": "Spain’s PM calls snap election after conservative and far-right wins in local polls",
        "webUrl": "https://www.theguardian.com/world/2023/may/29/spain-pm-calls-snap-election-after-opposition-and-far-right-wins-in-local-polls-pedro-sanchez",
        "apiUrl": "https://content.guardianapis.com/world/2023/may/29/spain-pm-calls-snap-election-after-opposition-and-far-right-wins-in-local-polls-pedro-sanchez",
        "isHosted": false,
        "pillarId": "pillar/news",
        "pillarName": "News"
      },
      {
        "id": "football/2023/may/29/premier-league-2022-23-season-review-signings-of-the-season",
        "type": "article",
        "sectionId": "football",
        "sectionName": "Football",
        "webPublicationDate": "2023-05-29T10:30:02Z",
        "webTitle": "Premier League 2022-23 review: signings of the season",
        "webUrl": "https://www.theguardian.com/football/2023/may/29/premier-league-2022-23-season-review-signings-of-the-season",
        "apiUrl": "https://content.guardianapis.com/football/2023/may/29/premier-league-2022-23-season-review-signings-of-the-season",
        "isHosted": false,
        "pillarId": "pillar/sport",
        "pillarName": "Sport"
      },
      {
        "id": "world/2023/may/29/colombia-bogota-paving-slabs-spray-paint",
        "type": "article",
        "sectionId": "world",
        "sectionName": "World news",
        "webPublicationDate": "2023-05-29T10:15:02Z",
        "webTitle": "The spray-can vigilantes shaming Bogotá for its perilous paving slabs",
        "webUrl": "https://www.theguardian.com/world/2023/may/29/colombia-bogota-paving-slabs-spray-paint",
        "apiUrl": "https://content.guardianapis.com/world/2023/may/29/colombia-bogota-paving-slabs-spray-paint",
        "isHosted": false,
        "pillarId": "pillar/news",
        "pillarName": "News"
      },
      {
        "id": "football/2023/may/29/premier-league-2022-23-review-young-players-of-the-season",
        "type": "article",
        "sectionId": "football",
        "sectionName": "Football",
        "webPublicationDate": "2023-05-29T10:00:03Z",
        "webTitle": "Premier League 2022-23 review: young players of the season",
        "webUrl": "https://www.theguardian.com/football/2023/may/29/premier-league-2022-23-review-young-players-of-the-season",
        "apiUrl": "https://content.guardianapis.com/football/2023/may/29/premier-league-2022-23-review-young-players-of-the-season",
        "isHosted": false,
        "pillarId": "pillar/sport",
        "pillarName": "Sport"
      },
      {
        "id": "education/2023/may/29/us-students-graduate-around-the-country-flags-politicians-furry-friends",
        "type": "article",
        "sectionId": "education",
        "sectionName": "Education",
        "webPublicationDate": "2023-05-29T10:00:03Z",
        "webTitle": "Students graduate around the country, with flags, politicians and a furry friend",
        "webUrl": "https://www.theguardian.com/education/2023/may/29/us-students-graduate-around-the-country-flags-politicians-furry-friends",
        "apiUrl": "https://content.guardianapis.com/education/2023/may/29/us-students-graduate-around-the-country-flags-politicians-furry-friends",
        "isHosted": false,
        "pillarId": "pillar/news",
        "pillarName": "News"
      },
      {
        "id": "us-news/2023/may/29/dianne-feinstein-democrats-divided-health-questions",
        "type": "article",
        "sectionId": "us-news",
        "sectionName": "US news",
        "webPublicationDate": "2023-05-29T10:00:03Z",
        "webTitle": "Democrats’ Dianne Feinstein dilemma: party split over senator’s diminishing health ",
        "webUrl": "https://www.theguardian.com/us-news/2023/may/29/dianne-feinstein-democrats-divided-health-questions",
        "apiUrl": "https://content.guardianapis.com/us-news/2023/may/29/dianne-feinstein-democrats-divided-health-questions",
        "isHosted": false,
        "pillarId": "pillar/news",
        "pillarName": "News"
      },
      {
        "id": "film/2023/may/29/breaking-infinity-review-low-budget-time-travel-puzzler-goes-round-in-circles",
        "type": "article",
        "sectionId": "film",
        "sectionName": "Film",
        "webPublicationDate": "2023-05-29T10:00:02Z",
        "webTitle": "Breaking Infinity review – low-budget time-travel puzzler goes round in circles",
        "webUrl": "https://www.theguardian.com/film/2023/may/29/breaking-infinity-review-low-budget-time-travel-puzzler-goes-round-in-circles",
        "apiUrl": "https://content.guardianapis.com/film/2023/may/29/breaking-infinity-review-low-budget-time-travel-puzzler-goes-round-in-circles",
        "isHosted": false,
        "pillarId": "pillar/arts",
        "pillarName": "Arts"
      },
      {
        "id": "environment/2023/may/29/rio-grande-valley-farmers-study-ancient-technique-cover-cropping-climate-crisis",
        "type": "article",
        "sectionId": "environment",
        "sectionName": "Environment",
        "webPublicationDate": "2023-05-29T10:00:02Z",
        "webTitle": "‘Unpredictability is our biggest problem’: Rio Grande Valley farmers experiment with ancient farming styles",
        "webUrl": "https://www.theguardian.com/environment/2023/may/29/rio-grande-valley-farmers-study-ancient-technique-cover-cropping-climate-crisis",
        "apiUrl": "https://content.guardianapis.com/environment/2023/may/29/rio-grande-valley-farmers-study-ancient-technique-cover-cropping-climate-crisis",
        "isHosted": false,
        "pillarId": "pillar/news",
        "pillarName": "News"
      },
      {
        "id": "food/2023/may/29/italian-pasta-and-peas-recipe-rachel-roddy",
        "type": "article",
        "sectionId": "food",
        "sectionName": "Food",
        "webPublicationDate": "2023-05-29T10:00:02Z",
        "webTitle": "Rachel Roddy’s recipe for pasta and peas | A kitchen in Rome",
        "webUrl": "https://www.theguardian.com/food/2023/may/29/italian-pasta-and-peas-recipe-rachel-roddy",
        "apiUrl": "https://content.guardianapis.com/food/2023/may/29/italian-pasta-and-peas-recipe-rachel-roddy",
        "isHosted": false,
        "pillarId": "pillar/lifestyle",
        "pillarName": "Lifestyle"
      },
      {
        "id": "lifeandstyle/2023/may/29/the-pet-ill-never-forget-part-mafia-boss-part-artful-dodger-julian-the-cat-scorns-societys-rules",
        "type": "article",
        "sectionId": "lifeandstyle",
        "sectionName": "Life and style",
        "webPublicationDate": "2023-05-29T10:00:02Z",
        "webTitle": "The pet I’ll never forget: part mafia boss, part Artful Dodger, Julian the cat scorns society’s rules",
        "webUrl": "https://www.theguardian.com/lifeandstyle/2023/may/29/the-pet-ill-never-forget-part-mafia-boss-part-artful-dodger-julian-the-cat-scorns-societys-rules",
        "apiUrl": "https://content.guardianapis.com/lifeandstyle/2023/may/29/the-pet-ill-never-forget-part-mafia-boss-part-artful-dodger-julian-the-cat-scorns-societys-rules",
        "isHosted": false,
        "pillarId": "pillar/lifestyle",
        "pillarName": "Lifestyle"
      },
      {
        "id": "us-news/2023/may/29/texas-invasion-clause-migrants-racist-dangerous",
        "type": "article",
        "sectionId": "us-news",
        "sectionName": "US news",
        "webPublicationDate": "2023-05-29T10:00:02Z",
        "webTitle": "Texas’s use of ‘invasion’ clause against immigrants is racist and dangerous, rights groups say",
        "webUrl": "https://www.theguardian.com/us-news/2023/may/29/texas-invasion-clause-migrants-racist-dangerous",
        "apiUrl": "https://content.guardianapis.com/us-news/2023/may/29/texas-invasion-clause-migrants-racist-dangerous",
        "isHosted": false,
        "pillarId": "pillar/news",
        "pillarName": "News"
      },
      {
        "id": "world/2023/may/29/hong-kong-court-rebuffs-effort-to-dismiss-jimmy-lai-national-security-trial",
        "type": "article",
        "sectionId": "world",
        "sectionName": "World news",
        "webPublicationDate": "2023-05-29T09:53:18Z",
        "webTitle": "Hong Kong court rebuffs effort to dismiss Jimmy Lai national security trial",
        "webUrl": "https://www.theguardian.com/world/2023/may/29/hong-kong-court-rebuffs-effort-to-dismiss-jimmy-lai-national-security-trial",
        "apiUrl": "https://content.guardianapis.com/world/2023/may/29/hong-kong-court-rebuffs-effort-to-dismiss-jimmy-lai-national-security-trial",
        "isHosted": false,
        "pillarId": "pillar/news",
        "pillarName": "News"
      },
      {
        "id": "crosswords/crossword-blog/2023/may/29/crossword-roundup-an-appetite-for-welsh-cuisine-and-welsh-pets",
        "type": "article",
        "sectionId": "crosswords",
        "sectionName": "Crosswords",
        "webPublicationDate": "2023-05-29T09:52:19Z",
        "webTitle": "Crossword roundup: an appetite for Welsh cuisine and Welsh pets",
        "webUrl": "https://www.theguardian.com/crosswords/crossword-blog/2023/may/29/crossword-roundup-an-appetite-for-welsh-cuisine-and-welsh-pets",
        "apiUrl": "https://content.guardianapis.com/crosswords/crossword-blog/2023/may/29/crossword-roundup-an-appetite-for-welsh-cuisine-and-welsh-pets",
        "isHosted": false,
        "pillarId": "pillar/lifestyle",
        "pillarName": "Lifestyle"
      },
      {
        "id": "football/2023/may/29/premier-league-2022-23-review-matches-of-the-season",
        "type": "article",
        "sectionId": "football",
        "sectionName": "Football",
        "webPublicationDate": "2023-05-29T09:30:01Z",
        "webTitle": "Premier League 2022-23 review: matches of the season",
        "webUrl": "https://www.theguardian.com/football/2023/may/29/premier-league-2022-23-review-matches-of-the-season",
        "apiUrl": "https://content.guardianapis.com/football/2023/may/29/premier-league-2022-23-review-matches-of-the-season",
        "isHosted": false,
        "pillarId": "pillar/sport",
        "pillarName": "Sport"
      }
    ]
  }
}